2020-12-15T21:48:09.6609868+01:00  [INF] Application started. Press Ctrl+C to shut down. (dcaefe54)
2020-12-15T21:48:09.6672825+01:00  [INF] Hosting environment: "Production" (c3307c92)
2020-12-15T21:48:09.6673988+01:00  [INF] Content root path: "D:\WebApp\realeMutua\webAppDemo\SSO" (b5d60022)
2020-12-15T21:48:09.6691090+01:00 80004b48-0002-e000-b63f-84710c7967bb [INF] Request starting HTTP/1.1 POST http://dev.realemutuacontest.it/SSO/sso?cryptData=TZVxBdVUqpw4KlkggR2jimIZx6kUbzbuw9/zK5VCPt5mQfEt8QOjiu6uJiEUujzipo1XZRLu4KBnCzlsR6JOfw== application/x-www-form-urlencoded 0 (ca22a1cb)
2020-12-15T21:48:09.6791938+01:00 80004b48-0002-e000-b63f-84710c7967bb [WRN] Failed to determine the https port for redirect. (ca76cc21)
2020-12-15T21:48:09.7021229+01:00 80004b48-0002-e000-b63f-84710c7967bb [INF] Executing endpoint '"RealeMutuaSsoIntegration.Controllers.SsoController.Post (RealeMutuaSsoIntegration)"' (500cc934)
2020-12-15T21:48:09.7533325+01:00 80004b48-0002-e000-b63f-84710c7967bb [INF] Route matched with "{action = \"Post\", controller = \"Sso\"}". Executing controller action with signature "System.Threading.Tasks.Task`1[Microsoft.AspNetCore.Mvc.RedirectResult] Post(System.String)" on controller "RealeMutuaSsoIntegration.Controllers.SsoController" ("RealeMutuaSsoIntegration"). (122b2fdf)
2020-12-15T21:48:09.7712790+01:00 80004b48-0002-e000-b63f-84710c7967bb [INF] External url https://api-gateway-pre.grupporealemutua.it/ws/AdministrationApp/1.0/DecryptAES?Data= (f59b32b4)
2020-12-15T21:48:09.7895371+01:00 80004b48-0002-e000-b63f-84710c7967bb [INF] Start processing HTTP request "POST" https://api-gateway-pre.grupporealemutua.it/ws/AdministrationApp/1.0/DecryptAES?Data= (338f1c77)
2020-12-15T21:48:09.7900856+01:00 80004b48-0002-e000-b63f-84710c7967bb [INF] Sending HTTP request "POST" https://api-gateway-pre.grupporealemutua.it/ws/AdministrationApp/1.0/DecryptAES?Data= (2e7ac211)
2020-12-15T21:48:10.0035780+01:00 80004b48-0002-e000-b63f-84710c7967bb [INF] Received HTTP response headers after 208.9597ms - 401 (f0742c1f)
2020-12-15T21:48:10.0040482+01:00 80004b48-0002-e000-b63f-84710c7967bb [INF] End processing HTTP request after 222.4879ms - 401 (7656b38e)
2020-12-15T21:48:10.0229244+01:00 80004b48-0002-e000-b63f-84710c7967bb [INF] Si è verificato un errore imprevisto durante la chiamata al servizio esterno: API Gateway encountered an error. Error Message:  Unauthorized application request. Request Details: Service - AdministrationApp, Operation - DecryptAES, Invocation Time:9:47:13 PM, Date:Dec 15, 2020, User - Default and Application:sys:defaultApplication (11309a4e)
2020-12-15T21:48:10.0305421+01:00 80004b48-0002-e000-b63f-84710c7967bb [INF] Executed action "RealeMutuaSsoIntegration.Controllers.SsoController.Post (RealeMutuaSsoIntegration)" in 271.812ms (afa2e885)
2020-12-15T21:48:10.0309513+01:00 80004b48-0002-e000-b63f-84710c7967bb [INF] Executed endpoint '"RealeMutuaSsoIntegration.Controllers.SsoController.Post (RealeMutuaSsoIntegration)"' (99874f2b)
2020-12-15T21:48:10.0487262+01:00 80004b48-0002-e000-b63f-84710c7967bb [ERR] Connection ID ""16140901074696424263"", Request ID ""80004b48-0002-e000-b63f-84710c7967bb"": An unhandled exception was thrown by the application. (bf316047)
System.ApplicationException: Si è verificato un errore imprevisto
   at RealeMutuaSsoIntegration.Controllers.SsoController.Post(String cryptData) in /Users/lucataurisano/Dropbox/Work/Digital/RealeMutuaSSOIntegration/RealeMutuaSsoIntegration/Controllers/Sso.cs:line 72
   at lambda_method4(Closure , Object )
   at Microsoft.AspNetCore.Mvc.Infrastructure.ActionMethodExecutor.TaskOfActionResultExecutor.Execute(IActionResultTypeMapper mapper, ObjectMethodExecutor executor, Object controller, Object[] arguments)
   at Microsoft.AspNetCore.Mvc.Infrastructure.ControllerActionInvoker.<InvokeActionMethodAsync>g__Awaited|12_0(ControllerActionInvoker invoker, ValueTask`1 actionResultValueTask)
   at Microsoft.AspNetCore.Mvc.Infrastructure.ControllerActionInvoker.<InvokeNextActionFilterAsync>g__Awaited|10_0(ControllerActionInvoker invoker, Task lastTask, State next, Scope scope, Object state, Boolean isCompleted)
   at Microsoft.AspNetCore.Mvc.Infrastructure.ControllerActionInvoker.Rethrow(ActionExecutedContextSealed context)
   at Microsoft.AspNetCore.Mvc.Infrastructure.ControllerActionInvoker.Next(State& next, Scope& scope, Object& state, Boolean& isCompleted)
   at Microsoft.AspNetCore.Mvc.Infrastructure.ControllerActionInvoker.<InvokeInnerFilterAsync>g__Awaited|13_0(ControllerActionInvoker invoker, Task lastTask, State next, Scope scope, Object state, Boolean isCompleted)
   at Microsoft.AspNetCore.Mvc.Infrastructure.ResourceInvoker.<InvokeFilterPipelineAsync>g__Awaited|19_0(ResourceInvoker invoker, Task lastTask, State next, Scope scope, Object state, Boolean isCompleted)
   at Microsoft.AspNetCore.Mvc.Infrastructure.ResourceInvoker.<InvokeAsync>g__Logged|17_1(ResourceInvoker invoker)
   at Microsoft.AspNetCore.Routing.EndpointMiddleware.<Invoke>g__AwaitRequestTask|6_0(Endpoint endpoint, Task requestTask, ILogger logger)
   at Microsoft.AspNetCore.Authorization.AuthorizationMiddleware.Invoke(HttpContext context)
   at Microsoft.AspNetCore.Builder.Extensions.UsePathBaseMiddleware.Invoke(HttpContext context)
   at Microsoft.AspNetCore.Server.IIS.Core.IISHttpContextOfT`1.ProcessRequestAsync()
2020-12-15T21:48:10.0547840+01:00 80004b48-0002-e000-b63f-84710c7967bb [INF] Request finished HTTP/1.1 POST http://dev.realemutuacontest.it/SSO/sso?cryptData=TZVxBdVUqpw4KlkggR2jimIZx6kUbzbuw9/zK5VCPt5mQfEt8QOjiu6uJiEUujzipo1XZRLu4KBnCzlsR6JOfw== application/x-www-form-urlencoded 0 - 500 - - 388.2677ms (791a596a)
2020-12-15T22:09:09.0903941+01:00  [INF] Application is shutting down... (90f52c38)
